﻿{
    "documentNo": 0,
    "caseNo": 0,       
    "createUser": 0,
    "careType": 60,
    "createTime": "",
    "documentType": 0,
    "templateUrl": "",
    "versionId": "1.0.0",
    "tranStatus": 0,
    "body": {
		    "information": { "title": "基本資料"},
        "date": {"title": "評估日期：", "value": "" },
        "name": { "title": "姓名：", "value": "" }, 
		    "chartNo": { "title": "病歷號：", "value": "" },
        "sex": { "title": "性別：", "value": ""},
        "birthday" :{ "title": "出生日期：", "value": ""},
        "age": { "title": "年齡：", "value": "" },
        "audio": { "title": "", "value": "" },
        "treatmentPeriod": { "title": "治療期：", "value": "","code": "" },

        "voiceDisorder": { "title": "1.VOICE DISORDER" },
        "vocalFunction": { "title": "Vocal Function" },
        "severity": { "title": "Severity of the problem (voice rating:0,1,2,3)" },
		"pitch": {"title":"Pitch：", "value":"", "range": "","option": [{"title": "highest"},{"title": "lowest"},{"title": "habituall"}]},
		"loudness": {"title":"Loudness：", "value":"", "range": "","option": [{"title": "normal"},{"title": "too loud"},{"title": "too soft"}]},
		"quality": {"title":"Quality：", "value":""},
		"breathy": {"title":"Breathy：", "value":""},
		"husky": {"title":"Husky：", "value":""},
        "hoarse": { "title": "Hoarse：", "value": "" },

        "speech": {"title":"Speech rate：", "value": "" },   
		    "phonatoryAphonia": {"title":"Phonatory quality-Aphonia：", "value": ""},
        "phonatoryWhisper": {"title":"Phonatory quality-Whisper：", "value": ""},

        "breathiness": {"title":"Breathiness：", "value": "" },        
        "roughness": {"title":"Roughness：", "value": "" },
        "strain": { "title": "Strain：", "value": "" },

        "respiration": {"title":"Respiration-phonation score：", "value": "" },
        "say": {"title":"Say[Z]secs/say[s]secs=", "value": "" },
        "hard": {"title":"Hard glottal attack：", "value": "" },
        "vocalFatigue": {"title":"Vocal fatigue：", "value": "" },
        "falsetto": {"title":"Falsetto：", "value": "" },
        "diplophonia": { "title": "Diplophonia：", "value": "" },

        "vocal": {"title":"Vocal fry：", "value": "" },
        "tremor": {"title":"Tremor：", "value": "" },
        "spasm": {"title":"Spasm：", "value": "" },
        "others": { "title": "Others：", "value": "" },

        "resonance1": {"title":"Resonance quality-Hypernasality：", "value": "" },
        "resonance2": { "title": "Resonance quality-Denasality：", "value": "" },

        "related1": {"title":"Related observations-Resonance：", "value": "" },
        "related2": { "title": "Related observations-Monotone：", "value": "" },

        "pitchBreaks": {"title":"Pitch breaks：", "value": "" },
        "phonation": {"title":"Phonation breaks：", "value": "" },

		"loudnessPerception": { "title": "Loudness perception and production" },
		"maxium": {"title":"Maxium phonation time：", "value":""},
        "maxium1": { "title": "normal inhalation(say”a”)", "value": "" },
        "maxium2": { "title": "Deep inhalation(say”a”)", "value": "" },
		    "breathingType": {"title":"Breathing type：", "value":"","other": "","option": [ {"title":"Clavicular", "value":""},{"title":"Throacic", "value":""}, {"title":"Diaphragmatic", "value":""}, {"title":"Others：", "value":""}]},
        "tensionSite": { "title": "Tension site：", "value": "","option": [{ "title": "Oral cavity", "value": "" }, { "title": "Face", "value": "" }, { "title": "Neck", "value": "" },{ "title": "Shoulder", "value": "" },{ "title": "Chest", "value": "" },{ "title": "General body", "value": "" },{ "title": "Apparent laryngeal hypertension", "value": "" }] },
        "hypernasality": { "title": "Hypernasality：","option": [{ "title": "Function", "value": "" },{ "title": "Organic", "value": "" }] },
        "nasal": { "title": "Nasal emission：", "value": "","option": [{ "title": "Positive", "value": "" },{ "title": "Negative", "value": "" }] },
        "denasality": { "title": "Denasality：", "value": "","option": [{ "title": "Function", "value": "" },{ "title": "Organic", "value": "" },{ "title": "Negative", "value": "" }] },

        "articulation": { "title": "2.ARTICULATION DISORDER" },
        "etiology": { "title": "Etiology：", "value": "","option": [{ "title": "Organic", "value": ""},{ "title": "Neuromuscular disorders", "value": ""},{ "title": "Lip", "value": ""},{ "title": "Tongue", "value": ""},{ "title": "Teeth", "value": ""},{ "title": "Velum", "value": ""},{ "title": "Pharynx", "value": ""}] },
        "peripheral": { "title": "Peripheral oral exercise：","option": [{ "title": "Poor oral and tongue", "value": ""}] },
        "exercise": { "title": "Exercise：", "value": "","option": [{ "title": "Lip", "value": ""},{ "title": "Tongue", "value": ""},{ "title": "Teeth", "value": ""},{ "title": "Velum", "value": ""},{ "title": "Pharynx", "value": ""},{ "title": "（abnormal）", "value": ""}] },
        "velar": { "title": "Velar-pharyngeal sphincter：", "value": "", "unit": "times" },
        "nasalEmission": { "title": "Nasal emission score：", "value": "", "unit": "%" },
        "articulationErrors": { "title": "Articulation errors：", "value": "","option": [{ "title": "Development", "value": "" },{ "title": "Functional articulation problem", "value": "" },{ "title": "Organic articulation problem", "value": "" }] },
		    "stimulibility": {"title":"Stimulibility test：imitation","value": "","option": [{ "title": "1 best"},{ "title": "2"},{ "title": "3"},{ "title": "4"},{ "title": "5 worst"}]},
        "observation": { "title": "Observation：", "value": "" ,"option": [{ "title": "substitutions", "value": "" },{ "title": "omissions", "value": "" },{ "title": "disortions", "value": "" }, { "title": "additions", "value": "" },{ "title": "hypernasality", "value": "" },{ "title": "nasal emission", "value": "" },{ "title": "assimilative nasality", "value": "" },{ "title": "denasality", "value": "" }]},

        "rhythm": { "title": "3.RHYTHM DISORDER" },
        "speechRate": { "title": "Speech rate：", "value": "" },
        "stutteringTimes": { "title": "Times of stuttering：", "value": "" },
        "classification": { "title": "Classification：", "value": "","option": [{ "title": "Prolongation", "value": "" },{ "title": "Repetition", "value": "" },{ "title": "Tension", "value": "" },{ "title": "Trembling", "value": "" }] },
        "observationRhythm": { "title": "Observation：" ,"option":[{ "title": "Stuttering", "value": "" },{ "title": "Cluttering", "value": "" }] },

        "language": { "title": "4.LANGUAGE DISORDER" },
        "compression": { "title": "Compression：", "value": "" },
        "expression": { "title": "Expression：", "value": "" },
        "intelligence": { "title": "Intelligence：", "value": "" },
        "specialBehavior": { "title": "Special behavior：", "value": "" },
        "motor": { "title": "Motor coordination：", "value": "" },
        "etiologyHearingLossR": { "title": "Etiology-Hearing loss-PTA-Right：","value": "","unit": "dB"},
        "etiologyHearingLossL": { "title": "Etiology-Hearing loss-PTA-Left：","value": "","unit": "dB"},
        "etiologyNeurological": { "title": "Etiology-Neurological dysfunctions：","value": "","option": [{ "title": "postive"},{ "title": "negative"}]},
        "etiologyEmotional": { "title": "Etiology-Emotional problem：","value": "","option": [{ "title": "postive"},{ "title": "negative"}]},
        "etiologyCulture": { "title": "Etiology-Culture deprivation：","value": "","option": [{ "title": "postive"},{ "title": "negative"}]},
        
        "suggestion": { "title": "5.Suggestion", "value":"" }
    }
}
