﻿{
    "documentNo": 0,
    "createUser": "",
    "branchNo": "0",
    "documentType": "",
    "templateUrl": "",
    "versionId": "",
    "createTime": "",
    "admNo": "",
    "systemUser": "",
    "systemTime": "",
    "tranStatus": "",
    "body": {
        "information": { "title": "基本資料"},
        "date": {"title": "評估日期：", "value": "" },
        "name": { "title": "姓名：", "value": "" }, 
		    "chartNo": { "title": "病歷號：", "value": "" },
        "sex": { "title": "性別：", "value": ""},
        "birthday" :{ "title": "出生日期：", "value": ""},
        "age": { "title": "年齡：", "value": "" },
        "treatmentPeriod": { "title": "治療期：", "value": "","code": "" },

        "speech" :{ "title": "Speech：", "value": ""},
        "occupation" :{ "title": "Occupation：", "value": ""},
        "onsetTime" :{ "title": "Onset time：", "value": ""},
        "education" :{ "title": "Education：", "value": ""},
        "medicalDiagnosis" :{ "title": "Medical Diagnosis：", "value": ""},
        "cancerRelated" :{ "title": "Cancer-related：", "value": "","option": [{ "title": "Radiation therapy", "value": ""},{ "title": "Chemotherapy", "value": ""},{ "title": "Surgery", "value": ""}]},
        "complication" :{ "title": "Complication：", "value": "","option": [{ "title": "Reduced salivary flow", "value": ""},{ "title": "Xerostomia", "value": ""},{ "title": "Odynophagia", "value": ""},{ "title": "Smell and taste change", "value": ""},{ "title": "Fibrosis(trismus)", "value": ""},{ "title": "Mucositis", "value": ""},{ "title": "Dental changes", "value": ""}]},
        "intakeStatus" :{ "title": "Intake Status：", "value": "","option": [{ "title": "N-G feeding", "value": ""},{ "title": "Oral intake", "value": ""}]},

        "assessmentItems": { "title": "Assessment items"},

        "jawMovement" :{ "title": "Jaw movement：", "value": "","option": [{ "title": "normal"},{ "title": "slow respond"},{ "title": "less effort"},{ "title": "very weak"},{ "title": "non"}]},
        "lipClosure" :{ "title": "Lip closure：", "value": "","option": [{ "title": "normal"},{ "title": "slow respond"},{ "title": "less effort"},{ "title": "very weak"},{ "title": "non"}]},
        "showingTeeth" :{ "title": "Showing teeth：", "value": "","option": [{ "title": "normal"},{ "title": "slow respond"},{ "title": "less effort"},{ "title": "very weak"},{ "title": "non"}]},
        "puffing" :{ "title": "Puffing：", "value": "","option": [{ "title": "normal"},{ "title": "slow respond"},{ "title": "less effort"},{ "title": "very weak"},{ "title": "non"}]},
        "chewing" :{ "title": "Chewing：", "value": "","option": [{ "title": "normal"},{ "title": "slow respond"},{ "title": "less effort"},{ "title": "very weak"},{ "title": "non"}]},
        "tongueA" :{ "title": "Tongue (Anterior)：", "value": "","option": [{ "title": "normal"},{ "title": "slow respond"},{ "title": "less effort"},{ "title": "very weak"},{ "title": "non"}]},
        "tongueP" :{ "title": "Tongue (Posterior)：", "value": "","option": [{ "title": "normal"},{ "title": "slow respond"},{ "title": "less effort"},{ "title": "very weak"},{ "title": "non"}]},
        "tongueR" :{ "title": "Tongue (Right side)：", "value": "","option": [{ "title": "normal"},{ "title": "slow respond"},{ "title": "less effort"},{ "title": "very weak"},{ "title": "non"}]},
        "tongueL" :{ "title": "Tongue (Left side)：", "value": "","option": [{ "title": "normal"},{ "title": "slow respond"},{ "title": "less effort"},{ "title": "very weak"},{ "title": "non"}]},
        "tongueU" :{ "title": "Tongue (Up)：", "value": "","option": [{ "title": "normal"},{ "title": "slow respond"},{ "title": "less effort"},{ "title": "very weak"},{ "title": "non"}]},
        "tongueD" :{ "title": "Tongue (Down)：", "value": "","option": [{ "title": "normal"},{ "title": "slow respond"},{ "title": "less effort"},{ "title": "very weak"},{ "title": "non"}]},
        "tongueStrength" :{ "title": "Tongue Strength：", "value": "","option": [{ "title": "kPa","value": "","other": ""},{ "title": "kPa","value": "","other": ""},{ "title": "kPa","value": "","other": ""},{ "title": "Average：","other": ""}]},
        "palateMovement": { "title": "Palate movement：", "value": "","option": [{ "title": "present"},{ "title": "absent"}] },
        "chocking" :{ "title": "Chocking：", "value": "","option": [{ "title": "non"},{ "title": "tolerate > 10 cc"},{ "title": "tolerate 5~9cc"},{ "title": "2~4 cc"},{ "title": "≦ 2 cc"}]},
        "hypernasality" :{ "title": "Hypernasality：", "value": "","option": [{ "title": "non" },{ "title": "mild"},{ "title": "moderate"},{ "title": "severe" }]},
        "hyoid" :{ "title": "Hyoid elevation：", "value": "","option": [{ "title": "normal"},{ "title": "reduced"},{ "title": "non" }]},
        "swallowingReflex" :{ "title": "Swallowing reflex：", "value": "","option": [ { "title": "normal"},{ "title": "delayed < 2 secs"},{ "title": "delayed ≧ 2 secs" }]},
        "gagReflex" :{ "title": "Gag reflex：", "value": "","option": [{ "title": "present"},{ "title": "absent" }]},
        "cough" :{ "title": "Cough：" , "value": "","option": [{ "title": "present"},{ "title": "absent" }]},
        "sensory" :{ "title": "Sensory：","value": "","option": [{ "title": "normal"}, { "title": "abnormal" }],"abnormal": "","abnormalOption": [{ "title": "R’t side"},{ "title": "L’t side" }] },
        "drooling" :{ "title": "Drooling：","value": "","option": [{ "title": "no"}, { "title": "yes" }],"yes": "","yesOption": [{ "title": "R’t side"},{ "title": "L’t side" }]  },
        "wetVoice" :{ "title": "Wet voice：", "value": "","option": [{ "title": "present"},{ "title": "absent" }]},
        "nasal" :{ "title": "Nasal reflux：", "value": "","option": [{ "title": "present"},{ "title": "absent" }] },
        "biting" :{ "title": "Biting reflex：", "value": "","option": [{ "title": "present"},{ "title": "absent" }]},

        "stagesSwallowing" :{ "title": "Stages of swallowing"},
        "preparatory" :{ "title": "Preparatory Phase：", "value": "","option": [{ "title": "Poor labial seal", "value": ""},{ "title": "Reduced oral sensation", "value": ""},{ "title": "Excessive secretions", "value": ""},{ "title": "Deficient salivation", "value": ""}]},
        "oralPhase" :{ "title": "Oral Phase：", "value": "","option": [{ "title": "Reduced tongue control", "value": ""},{ "title": "Poor mastication/bolus preparation", "value": ""},{ "title": "Reduced lingual motion/bolus transportation", "value": ""},{ "title": "Oral residue", "value": ""}]},
        "pharyngeal" :{ "title": "Pharyngeal phase：", "value": "","option": [{ "title": "Delayed initiation of pharyngeal swallow", "value": ""},{ "title": "Reduced soft palate elevation", "value": ""},{ "title": "Reduced laryngeal elevation", "value": ""}]},
        
        "impression" :{ "title": "Impression："},
        "suggestion" :{ "title": "Suggestion：", "value": "","option": [{ "title": "N-G feeding", "value": ""},{ "title": "Oral intake", "value": ""},{ "title": "pureed", "value": ""},{ "title": "mechanical soft", "value": ""},{ "title": "thick", "value": ""},{ "title": "thin", "value": ""},{ "title": "normal", "value": ""}]},
        "treatmentPlan" :{ "title": "Treatment Plan：","value": "","other": "","option": [{ "title": "Lingual Range of Motion", "value": ""},{ "title": "Thermal Stimulation", "value": ""},{ "title": "Electrical Stimulation", "value": ""},{ "title": "Shaker’s exercises/CTAR", "value": ""},{ "title": "Tongue holding exercises", "value": ""},{ "title": "Lingual Strengthening exercises", "value": ""},{ "title": "Range of motion exercises(neck,shoulder)", "value": ""},{ "title": "Jaw stretch exercises", "value": ""},{ "title": "Falseto exercises", "value": ""},{ "title": "Massage", "value": ""},{ "title": "Others：", "value": ""}]},
        "postureChanges" :{ "title": "Posture changes：", "value": "","option": [{ "title": "Chin tuck", "value": ""},{ "title": "Head extension", "value": ""},{ "title": "Head turn right", "value": ""},{ "title": "Head turn left", "value": ""},{ "title": "Head tilt right", "value": ""},{ "title": "Head tilt left", "value": ""}]},
        "swallowManeuvers" :{ "title": "Swallow maneuvers：", "value": "","option": [{ "title": "Additional swallow(s) per bolus", "value": ""},{ "title": "Effortful swallow", "value": ""},{ "title": "Mendelsohn maneuver", "value": ""},{ "title": "Supraglottic swallow", "value": ""},{ "title": "Super-supraglottic swallow", "value": ""}]},
        "others" :{ "title": "Others：", "value": ""}
    }
}
